R Tutorial at the WZB
…
The logical values of the smoker variable were converted to numeric values 0.00 or 1.00, because a column in a data frame can only be of one type. Since the numeric data type is the most generic type for the given data, smoker is converted to that type.

1.3. Use spread() on smiths_long to convert back to its original format, having age, weight, height and smoker as separate columns. What is the type of the smoker variable now and why is that so?

spread(smiths_long, var, y)

## # A tibble: 2 x 6
##   subject     time   age height smoker weight
##   <chr>      <dbl> <dbl>  <dbl>  <dbl>  <dbl>
## 1 John Smith     1    33   1.87      0     90
## 2 Mary Smith     1    NA   1.54      1     NA

The smoker variable is now a numerical type, not a logical type, because it was converted back from the numeric variable y in smiths_long and R doesnt know that it was originally a logical variable.

2. Install the package reshape2 and inform yourself about the french_fries data that comes with the package.

2.1. There are 5 flavors being rated in each row. Convert the data into long format by using gather() on the five flavor columns. The key column should be named flavor and the value column should be named rating. Store the result in an object tidy_fries.

(tidy_fries <- gather(french_fries, potato:painty, key = 'flavor', value = 'rating'))

##      time treatment subject rep  flavor rating
## 1       1         1       3   1  potato    2.9
## 2       1         1       3   2  potato   14.0
## 3       1         1      10   1  potato   11.0
## 4       1         1      10   2  potato    9.9
## 5       1         1      15   1  potato    1.2
##  [ reached getOption("max.print") -- omitted 3475 rows ]
…
