R Tutorial at the WZB
…
A data frame with 88 variables is returned. It also includes the latest tweet of this account and some meta data for that tweet. However, what is particularly interesting are variables like followers_count, friends_count (the number of accounts this user follows) or statuses_count (the number of tweets sent since account creation which in turn is stored in account_created_at).

5.2. Now look up user data for all Twitter account names in the Bundestag members data set (note that this will take several seconds) and store the result.

userdata <- lookup_users(mdb_twitter$twitter_name)
userdata

## # A tibble: 378 x 88
##    user_id status_id created_at          screen_name text  source
##  * <chr>   <chr>     <dttm>              <chr>       <chr> <chr> 
##  1 815469 10735648 2018-12-14 13:06:32 DirkWiese4  Inte Twitt
##  2 992808 10729332 2018-12-12 19:16:28 GabiWeberS Blic Faceb
##  3 386459 10731567 2018-12-13 10:04:47 edrossmann  @Yan Twitt
##  4 146199 46706835 2014-05-15 22:25:47 SusannRuet mit  Twitt
##  5 217916 10732029 2018-12-13 13:08:26 swenschulz  "Sie Twitt
##  6 111774 10732633 2018-12-13 17:08:17 Achim_P     Im I Twitt
##  7 494500 10735656 2018-12-14 13:09:43 DrAndreasN Pein Twitt
##  8 862714 10731539 2018-12-13 09:53:45 FOstendorff "... Twitt
##  9 257461 10735546 2018-12-14 12:26:00 SabineLeid http Hoots
## 10 190691 10716930 2018-12-09 09:08:33 Dr_Roy_Kue @Ilm Twitt
## # ... with 368 more rows, and 82 more variables: display_text_width <int>,
## #   reply_to_status_id <chr>, reply_to_user_id <chr>,
## #   reply_to_screen_name <chr>, is_quote <lgl>, is_retweet <lgl>,
## #   favorite_count <int>, retweet_count <int>, hashtags <list>,
## #   symbols <list>, urls_url <list>, urls_t.co <list>,
## #   urls_expanded_url <list>, media_url <list>, media_t.co <list>,
## #   media_expanded_url <list>, media_type <list>, ext_media_url <list>,
## #   ext_media_t.co <list>, ext_media_expanded_url <list>,
## #   ext_media_type <chr>, mentions_user_id <list>,
…
5.3. Create a subset of the Twitter user data with only the variables screen_name, account_created_at, followers_count, statuses_count. If you wanted to join this data with the Bundestag members data, which variable would you use to match the observations?

twitter_name from the Bundestag members and the screen_name from the Twitter API data must match for joining. We must watch out that both are all lower case (twitter_name already is).

5.4. Transform the data in the subset using mutate() so that 1) the screen_name is always lower case; 2) you have a new variable days_since_creation containing the age of the account in days calculated with round(as.numeric(as.POSIXct('2018-12-13') - account_created_at)); 3) another new variable tweets_per_day that is the average number of tweets sent per day by this account (calculate it with the help of days_since_creation). We can then use tweets_per_day as a measure of activity on Twitter.

usersub <- select(userdata, screen_name, account_created_at, followers_count, statuses_count) %>%  # subset
  # create the new variables
  mutate(screen_name = tolower(screen_name),               # this is the date the data was collected
         days_since_creation = round(as.numeric(as.POSIXct('2018-12-13') - account_created_at)),
         tweets_per_day = statuses_count / days_since_creation)
usersub

## # A tibble: 378 x 6
##    screen_name account_created_at  followers_count statuses_count
##    <chr>       <dttm>                        <int>          <int>
##  1 dirkwiese4  2017-01-01 08:06:30            1643           3065
##  2 gabiwebers 2012-12-06 10:29:09            3224           2776
##  3 edrossmann  2009-05-08 11:17:22            2360            590
##  4 susannruet 2013-05-27 12:42:27             620             19
##  5 swenschulz  2009-02-24 20:14:10            3724           1136
##  6 achim_p     2013-01-24 21:12:00            3342           5082
##  7 drandreasn 2009-06-21 22:26:05            3970          19374
##  8 fostendorff 2012-10-05 08:17:20            3148           1021
##  9 sabineleid 2011-02-25 13:33:26            6970           6957
## 10 dr_roy_kue 2013-09-26 06:13:48            1523            529
## # ... with 368 more rows, and 2 more variables: days_since_creation <dbl>,
## #   tweets_per_day <dbl>
…
